{
  "openapi": "3.0.0",
  "info": {
    "title": "API Example Tsyringe",
    "description": "<p>Bem-vindo(a) a documentação da API Example Tsyringe!<hr/>",
    "version": "1.0.0",
    "contact": {
      "email": "araujo.renatopaschoal@gmail.com"
    }
  },
  "paths": {
    "/users": {
      "post": {
        "tags": ["Usuários"],
        "summary": "Cadastro de Usuários",
        "description": "Cadastro de usuários.",
        "requestBody": {
          "content": {
            "application/json": {
              "schema": {
                "type": "object",
                "properties": {
                  "name": {
                    "type": "string",
                    "description": "Nome do usuário. Max: 100 caracteres."
                  },
                  "email": {
                    "type": "string",
                    "description": "E-mail do usuário. Max: 250 caracteres."
                  },
                  "password": {
                    "type": "string",
                    "description": "Senha do usuário. Min: 6 caracteres."
                  }
                },
                "example": {
                  "name": "User Example",
                  "email": "user@example.com",
                  "password": "123456"
                }
              }
            }
          }
        },
        "responses": {
          "201": {
            "description": "Created"
          },
          "400": {
            "description": "Bad Request"
          },
          "500": {
            "description": "Internal Server Error"
          }
        }
      }
    }
  }
}
